Lab 5 - Machine Learning in Hydrology – 523 C
…
Wrong version 1: augment

The broom package provides a convenient way to extract model predictions and residuals. We can use the augment function to add predicted values to the test data. However, if we use augment directly on the test data, we will get incorrect results because the preprocessing steps defined in the recipe object have not been applied to the test data.

nrow(camels_test)

[1] 135

nrow(camels_train)

[1] 536

broom::augment(lm_base, new_data = camels_test)

# A tibble: 535 × 9
   logQmean aridity p_mean .fitted  .resid    .hat .sigma    .cooksd .std.resid
      <dbl>   <dbl>  <dbl>   <dbl>   <dbl>   <dbl>  <dbl>      <dbl>      <dbl>
 1 -0.0230   -0.172  1.18    0.107 -0.130  0.00252  0.570 0.0000328     -0.228 
 2 -0.496     0.481  1.08   -0.549  0.0534 0.0179   0.570 0.0000408      0.0945
 3  0.530    -0.362  1.44    0.631 -0.101  0.00367  0.570 0.0000291     -0.178 
 4  0.314     0.573  0.665  -1.26   1.57   0.00562  0.566 0.0108         2.76  
 5  0.658    -0.466  1.28    0.470  0.188  0.00422  0.570 0.000116       0.331 
 6  0.00495  -0.146  1.33    0.308 -0.303  0.00475  0.570 0.000339      -0.533 
 7 -0.0146   -0.135  0.871  -0.376  0.362  0.00847  0.570 0.000868       0.638 
 8  0.413    -0.338  1.29    0.389  0.0238 0.00264  0.570 0.00000116     0.0419
 9  1.12     -0.402  1.52    0.769  0.349  0.00479  0.570 0.000454       0.614 
10  0.552    -0.506  1.34    0.591 -0.0388 0.00378  0.570 0.00000442    -0.0682
# ℹ 525 more rows
…
